# Enter your code here. Read input from STDIN. Print output to STDOUT
import re

if __name__ == '__main__':
    n = int(input())
    l = []
for i in range(0, n):
    num = input()
    l.append(num);
for i in range(0, n):
    if len(l[i]) == 10:
        match3 = re.search(r'\d\d\d\d\d\d\d\d\d\d', l[i])
        if match3:
          match = re.search(r'^7', l[i])
          if match:
           print('YES')
          else:
           match1 = re.search(r'^8', l[i])
           if match1:
             print('YES')
           else:
             match2 = re.search(r'^9', l[i])
             if match2:
               print('YES')
             else:
               print('NO')
        else:
         print('NO')
    else:
      print('NO')